Project/snow3g/ClockFSM.vcd
$date
	Sun Aug  6 16:44:04 2023
$end
$version
	Icarus Verilog
$end
$timescale
	1s
$end
$scope module clkfsmtest $end
$var wire 96 ! FSM_out [95:0] $end
$var wire 32 " F [31:0] $end
$var reg 128 # IV [127:0] $end
$var reg 512 $ LFSR_S [511:0] $end
$var reg 1 % clk $end
$var reg 128 & k [127:0] $end
$var reg 1 ' rst $end
$scope module DUT $end
$var wire 32 ( F [31:0] $end
$var wire 512 ) LFSR_S [511:0] $end
$var wire 1 % clk $end
$var wire 1 ' reset $end
$var wire 32 * s_2_out [31:0] $end
$var wire 32 + s_1_out [31:0] $end
$var wire 96 , FSM_out [95:0] $end
$var reg 32 - r [31:0] $end
$scope module S_1 $end
$var wire 1 % clk $end
$var wire 32 . s1_out [31:0] $end
$var wire 32 / w [31:0] $end
$var wire 8 0 mulx_out3 [7:0] $end
$var wire 8 1 mulx_out2 [7:0] $end
$var wire 8 2 mulx_out1 [7:0] $end
$var wire 8 3 mulx_out0 [7:0] $end
$var reg 32 4 r0 [31:0] $end
$var reg 32 5 r1 [31:0] $end
$var reg 32 6 r2 [31:0] $end
$var reg 32 7 r3 [31:0] $end
$var reg 8 8 srw0 [7:0] $end
$var reg 8 9 srw1 [7:0] $end
$var reg 8 : srw2 [7:0] $end
$var reg 8 ; srw3 [7:0] $end
$scope module MULx_0 $end
$var wire 8 < V [7:0] $end
$var wire 8 = c [7:0] $end
$var wire 1 % clk $end
$var reg 8 > mulx_out [7:0] $end
$upscope $end
$scope module MULx_1 $end
$var wire 8 ? V [7:0] $end
$var wire 8 @ c [7:0] $end
$var wire 1 % clk $end
$var reg 8 A mulx_out [7:0] $end
$upscope $end
$scope module MULx_2 $end
$var wire 8 B V [7:0] $end
$var wire 8 C c [7:0] $end
$var wire 1 % clk $end
$var reg 8 D mulx_out [7:0] $end
$upscope $end
$scope module MULx_3 $end
$var wire 8 E V [7:0] $end
$var wire 8 F c [7:0] $end
$var wire 1 % clk $end
$var reg 8 G mulx_out [7:0] $end
$upscope $end
$upscope $end
$scope module S_2 $end
$var wire 1 % clk $end
$var wire 32 H s2_out [31:0] $end
$var wire 32 I w [31:0] $end
$var wire 8 J mulx_out7 [7:0] $end
$var wire 8 K mulx_out6 [7:0] $end
$var wire 8 L mulx_out5 [7:0] $end
$var wire 8 M mulx_out4 [7:0] $end
$var reg 32 N r0 [31:0] $end
$var reg 32 O r1 [31:0] $end
$var reg 32 P r2 [31:0] $end
$var reg 32 Q r3 [31:0] $end
$var reg 8 R sqw0 [7:0] $end
$var reg 8 S sqw1 [7:0] $end
$var reg 8 T sqw2 [7:0] $end
$var reg 8 U sqw3 [7:0] $end
$scope module MULx_0 $end
$var wire 8 V V [7:0] $end
$var wire 8 W c [7:0] $end
$var wire 1 % clk $end
$var reg 8 X mulx_out [7:0] $end
$upscope $end
$scope module MULx_1 $end
$var wire 8 Y V [7:0] $end
$var wire 8 Z c [7:0] $end
$var wire 1 % clk $end
$var reg 8 [ mulx_out [7:0] $end
$upscope $end
$scope module MULx_2 $end
$var wire 8 \ V [7:0] $end
$var wire 8 ] c [7:0] $end
$var wire 1 % clk $end
$var reg 8 ^ mulx_out [7:0] $end
$upscope $end
$scope module MULx_3 $end
$var wire 8 _ V [7:0] $end
$var wire 8 ` c [7:0] $end
$var wire 1 % clk $end
$var reg 8 a mulx_out [7:0] $end
$upscope $end
$upscope $end
$upscope $end
$upscope $end
$enddefinitions $end
#0
$dumpvars
b1001010 a
b1101001 `
b100101 _
b1001010 ^
b1101001 ]
b100101 \
b1001010 [
b1101001 Z
b100101 Y
b1001010 X
b1101001 W
b100101 V
b100101 U
b100101 T
b100101 S
b100101 R
b100101 Q
b100101 P
b100101 O
b100101 N
b1001010 M
b1001010 L
b1001010 K
b1001010 J
b0 I
b100101001001010010010100100101 H
b11000110 G
b11011 F
b1100011 E
b11000110 D
b11011 C
b1100011 B
b11000110 A
b11011 @
b1100011 ?
b11000110 >
b11011 =
b1100011 <
b1100011 ;
b1100011 :
b1100011 9
b1100011 8
b1100011 7
b1100011 6
b1100011 5
b1100011 4
b11000110 3
b11000110 2
b11000110 1
b11000110 0
b0 /
b1100011011000110110001101100011 .
bx -
b0 ,
b1100011011000110110001101100011 +
b100101001001010010010100100101 *
b10100010100000111011100001011100100101010010110001001001000100001000001011000101101100110000000010000110100010100000100000011011101101110111111000000000101101111011010111001100001011011100101001100001001100011011100010100000110101000010100110111010011000000100100010000001111111110100100010010101001011000100100100010000100000101100010110110011000000000010101111010110010001011001111110110111011111100000000010110111011010101101001110110110111011110111110100111010010011001111111111010100001010011011101001100000 )
b10100010100000111011100001011100 (
1'
b1001000100000011111111101001000100101010010110001001001000100001000001011000101101100110000000000101011110101100100010110011111 &
1%
b10100010100000111011100001011100100101010010110001001001000100001000001011000101101100110000000010000110100010100000100000011011101101110111111000000000101101111011010111001100001011011100101001100001001100011011100010100000110101000010100110111010011000000100100010000001111111110100100010010101001011000100100100010000100000101100010110110011000000000010101111010110010001011001111110110111011111100000000010110111011010101101001110110110111011110111110100111010010011001111111111010100001010011011101001100000 $
b11100000010111111010001011111110111110001111110011011001001011010110101011100010011011000010011101010000000100100011100010100 #
b10100010100000111011100001011100 "
b0 !
$end
#5
0%
#7
0'
#10
b1001000011011000101101111000100 +
b1001000011011000101101111000100 .
b11011010 1
b11011010 D
b1010111 2
b1010111 A
b100110 3
b100110 >
b10010011100100111001001110010011 *
b10010011100100111001001110010011 H
b1001111 J
b1001111 a
b1001111 K
b1001111 ^
b1001111 L
b1001111 [
b1001111 M
b1001111 X
b11000100 7
b1011011 6
b1101100 5
b1001000 4
b1101101 :
b1101101 B
b10100110 9
b10100110 ?
b10011 8
b10011 <
b1000110001010100000100000111111 "
b1000110001010100000100000111111 (
b10010011 Q
b10010011 P
b10010011 O
b10010011 N
b10010011 U
b10010011 _
b10010011 T
b10010011 \
b10010011 S
b10010011 Y
b10010011 R
b10010011 V
b10000010110001011011001100000000 /
b1100011011000110110001101100011 I
b1001010010010100100101001001010110001101100011011000110110001110000010110001011011001100000000 !
b1001010010010100100101001001010110001101100011011000110110001110000010110001011011001100000000 ,
b10000010110001011011001100000000 -
1%
#15
0%
#20
b10000010000101001110100000010010 +
b10000010000101001110100000010010 .
b10010011 0
b10010011 G
b101001 1
b101001 D
b110100 2
b110100 A
b1010110 3
b1010110 >
b1001011011110000001010111101010 *
b1001011011110000001010111101010 H
b10101000 J
b10101000 a
b11011010 K
b11011010 ^
b1101110 L
b1101110 [
b11101101 M
b11101101 X
b10010 7
b11101000 6
b10100 5
b10000010 4
b11000100 ;
b11000100 E
b10011001 :
b10011001 B
b11010 9
b11010 ?
b101011 8
b101011 <
b11100101101010111110101000100000 "
b11100101101010111110101000100000 (
b11101010 Q
b10101 P
b1111000 O
b1001011 N
b1010100 U
b1010100 _
b1101101 T
b1101101 \
b110111 S
b110111 Y
b11000010 R
b11000010 V
b1011010000111111100110001000 /
b1001000011011000101101111000100 I
b100100111001001110010011100100110100100001101100010110111100010000001011010000111111100110001000 !
b100100111001001110010011100100110100100001101100010110111100010000001011010000111111100110001000 ,
b1011010000111111100110001000 -
1%
#25
0%
#30
b1010101010001111101111101101000 +
b1010101010001111101111101101000 .
b10110110 0
b10110110 G
b100000 1
b100000 D
b1001010 2
b1001010 A
b10001101 3
b10001101 >
b110111011010101101110000000010 *
b110111011010101101110000000010 H
b10010000 J
b10010000 a
b1011001 K
b1011001 ^
b10011110 L
b10011110 [
b111000 M
b111000 X
b1101000 7
b11011111 6
b1000111 5
b1010101 4
b1011011 ;
b1011011 E
b10000 :
b10000 B
b100101 9
b100101 ?
b11001011 8
b11001011 <
b1111110010100101101110010100001 "
b1111110010100101101110010100001 (
b10 Q
b11011100 P
b1101010 O
b110111 N
b1001000 U
b1001000 _
b10011000 T
b10011000 \
b1001111 S
b1001111 Y
b11100 R
b11100 V
b1011001110000100111110001010111 /
b10000010000101001110100000010010 I
b10010110111100000010101111010101000001000010100111010000001001001011001110000100111110001010111 !
b10010110111100000010101111010101000001000010100111010000001001001011001110000100111110001010111 ,
b1011001110000100111110001010111 -
1%
#35
0%
#40
b11010000101101111010101010110 +
b11010000101101111010101010110 .
b1111011 0
b1111011 G
b110010 1
b110010 D
b1110001 2
b1110001 A
b1111101 3
b1111101 >
b10010100001010110010110000110100 *
b10010100001010110010110000110100 H
b10000110 J
b10000110 a
b1010110 K
b1010110 ^
b11110110 L
b11110110 [
b1 M
b1 X
b1010110 7
b11110101 6
b10110 5
b11010 4
b10110000 ;
b10110000 E
b11001 :
b11001 B
b10110101 9
b10110101 ?
b10110011 8
b10110011 <
b10111011000100011001100000110000 "
b10111011000100011001100000110000 (
b110100 Q
b101100 P
b101011 O
b10010100 N
b1000011 U
b1000011 _
b101011 T
b101011 \
b1111011 S
b1111011 Y
b10110100 R
b10110100 V
b1001011110100101000111011111100 /
b1010101010001111101111101101000 I
b1101110110101011011100000000100101010101000111110111110110100001001011110100101000111011111100 !
b1101110110101011011100000000100101010101000111110111110110100001001011110100101000111011111100 ,
b1001011110100101000111011111100 -
1%
#45
0%
#50
b10001111010101001000001101111010 +
b10001111010101001000001101111010 .
b100 0
b100 G
b1011110 1
b1011110 D
b11010000 2
b11010000 A
b11001110 3
b11001110 >
b10001110010110100100001011001011 *
b10001110010110100100001011001011 H
b10000010 J
b10000010 a
b1010101 K
b1010101 ^
b11010100 L
b11010100 [
b10111001 M
b10111001 X
b1111010 7
b10000011 6
b1010100 5
b10001111 4
b10 ;
b10 E
b101111 :
b101111 B
b1101000 9
b1101000 ?
b1100111 8
b1100111 <
b10110111011011011111001110010000 "
b10110111011011011111001110010000 (
b11001011 Q
b1000010 P
b1011010 O
b10001110 N
b1000001 U
b1000001 _
b10011110 T
b10011110 \
b1101010 S
b1101010 Y
b11101000 R
b11101000 V
b1010111101110100111001101010 /
b11010000101101111010101010110 I
b100101000010101100101100001101000001101000010110111101010101011000001010111101110100111001101010 !
b100101000010101100101100001101000001101000010110111101010101011000001010111101110100111001101010 ,
b1010111101110100111001101010 -
1%
#55
0%
#60
b1011110110110000100000000110110 +
b1011110110110000100000000110110 .
b11111100 0
b11111100 G
b1000100 1
b1000100 D
b11010110 2
b11010110 A
b10010101 3
b10010101 >
b11010000111010111011101110001111 *
b11010000111010111011101110001111 H
b11010010 J
b11010010 a
b111011 K
b111011 ^
b100110 L
b100110 [
b11010001 M
b11010001 X
b110110 7
b1000000 6
b11011000 5
b1011110 4
b1111110 ;
b1111110 E
b100010 :
b100010 B
b1101011 9
b1101011 ?
b11000111 8
b11000111 <
b1011100110111011100111110011100 "
b1011100110111011100111110011100 (
b10001111 Q
b10111011 P
b11101011 O
b11010000 N
b1101001 U
b1101001 _
b10101001 T
b10101001 \
b10011 S
b10011 Y
b11011100 R
b11011100 V
b110001000001011001010010001010 /
b10001111010101001000001101111010 I
b100011100101101001000010110010111000111101010100100000110111101000110001000001011001010010001010 !
b100011100101101001000010110010111000111101010100100000110111101000110001000001011001010010001010 ,
b110001000001011001010010001010 -
1%
#65
0%
#70
b10111000101010101000000111001011 +
b10111000101010101000000111001011 .
b11011100 0
b11011100 G
b100001 1
b100001 D
b1100101 2
b1100101 A
b101000 3
b101000 >
b110101000001100000011111101100 *
b110101000001100000011111101100 H
b10001110 J
b10001110 a
b11111101 K
b11111101 ^
b11101000 L
b11101000 [
b1000010 M
b1000010 X
b11001011 7
b10000001 6
b10101010 5
b10111000 4
b1101110 ;
b1101110 E
b10011101 :
b10011101 B
b10111111 9
b10111111 ?
b10100 8
b10100 <
b1100000101000000110110110010111 "
b1100000101000000110110110010111 (
b11101100 Q
b111 P
b110 O
b110101 N
b1000111 U
b1000111 _
b11001010 T
b11001010 \
b1110100 S
b1110100 Y
b100001 R
b100001 V
b10011011111101000111010101000101 /
b1011110110110000100000000110110 I
b110100001110101110111011100011110101111011011000010000000011011010011011111101000111010101000101 !
b110100001110101110111011100011110101111011011000010000000011011010011011111101000111010101000101 ,
b10011011111101000111010101000101 -
1%
#75
0%
#80
b1000111011010010111101100000110 +
b1000111011010010111101100000110 .
b1010111 0
b1010111 G
b10100100 1
b10100100 D
b11011110 2
b11011110 A
b10001011 3
b10001011 >
b111100100011111010111001010011 *
b111100100011111010111001010011 H
b10100111 J
b10100111 a
b1011101 K
b1011101 ^
b100111 L
b100111 [
b1000001 M
b1000001 X
b110 7
b1111011 6
b1101001 5
b1000111 4
b10100110 ;
b10100110 E
b1010010 :
b1010010 B
b1101111 9
b1101111 ?
b11001000 8
b11001000 <
b11101011001000001000000011101010 "
b11101011001000001000000011101010 (
b1010011 Q
b10101110 P
b10001111 O
b111100 N
b11100111 U
b11100111 _
b10011010 T
b10011010 \
b10100111 S
b10100111 Y
b10010100 R
b10010100 V
b10110001000001100100100011000101 /
b10111000101010101000000111001011 I
b1101010000011000000111111011001011100010101010100000011100101110110001000001100100100011000101 !
b1101010000011000000111111011001011100010101010100000011100101110110001000001100100100011000101 ,
b10110001000001100100100011000101 -
1%
#85
0%
#90
b11011000011110100100100010001000 +
b11011000011110100100100010001000 .
b1001001 0
b1001001 G
b1010 1
b1010 D
b100101 2
b100101 A
b10100010 3
b10100010 >
b101101001000010001110000001000 *
b101101001000010001110000001000 H
b10111000 J
b10111000 a
b11110100 K
b11110100 ^
b10001010 L
b10001010 [
b11110110 M
b11110110 X
b10001000 7
b1001000 6
b1111010 5
b11011000 4
b10101001 ;
b10101001 E
b101 :
b101 B
b10011111 9
b10011111 ?
b1010001 8
b1010001 <
b1010101100110001001010000010101 "
b1010101100110001001010000010101 (
b1000 Q
b11100 P
b100001 O
b101101 N
b1011100 U
b1011100 _
b1111010 T
b1111010 \
b1000101 S
b1000101 Y
b1111011 R
b1111011 V
b1110000011011100011011010110111 /
b1000111011010010111101100000110 I
b1111001000111110101110010100110100011101101001011110110000011001110000011011100011011010110111 !
b1111001000111110101110010100110100011101101001011110110000011001110000011011100011011010110111 ,
b1110000011011100011011010110111 -
1%
#95
0%
#100
b10111011111010101001101101000001 +
b10111011111010101001101101000001 .
b10001101 0
b10001101 G
b10001100 1
b10001100 D
b11011010 2
b11011010 A
b11010110 3
b11010110 >
b10110011110111000111001010010010 *
b10110011110111000111001010010010 H
b10100000 J
b10100000 a
b11101101 K
b11101101 ^
b11010010 L
b11010010 [
b11101000 M
b11101000 X
b1000001 7
b10011011 6
b11101010 5
b10111011 4
b11001011 ;
b11001011 E
b1000110 :
b1000110 B
b1101101 9
b1101101 ?
b1101011 8
b1101011 <
b1110000010011010001100000111101 "
b1110000010011010001100000111101 (
b10010010 Q
b1110010 P
b11011100 O
b10110011 N
b1010000 U
b1010000 _
b11000010 T
b11000010 \
b1101001 S
b1101001 Y
b1110100 R
b1110100 V
b101101100111001100001011001 /
b11011000011110100100100010001000 I
b1011010010000100011100000010001101100001111010010010001000100000000101101100111001100001011001 !
b1011010010000100011100000010001101100001111010010010001000100000000101101100111001100001011001 ,
b101101100111001100001011001 -
1%
