Project/snow3g/Initialize.vcd
$date
	Tue Aug 22 13:45:16 2023
$end
$version
	Icarus Verilog
$end
$timescale
	1s
$end
$scope module initializetest $end
$var wire 96 ! z [95:0] $end
$var wire 512 " LFSR_out [511:0] $end
$var wire 96 # FSM_out [95:0] $end
$var reg 128 $ IV [127:0] $end
$var reg 1 % clk $end
$var reg 128 & k [127:0] $end
$var reg 1 ' rst $end
$scope module DUT $end
$var wire 128 ( IV [127:0] $end
$var wire 1 % clk $end
$var wire 128 ) k [127:0] $end
$var wire 1 ' reset $end
$var wire 32 * s_2_out [31:0] $end
$var wire 32 + s_1_out [31:0] $end
$var reg 32 , F [31:0] $end
$var reg 96 - FSM_out [95:0] $end
$var reg 512 . LFSR_out [511:0] $end
$var reg 32 / counter [31:0] $end
$var reg 32 0 r [31:0] $end
$var reg 32 1 v_1 [31:0] $end
$scope module S_1 $end
$var wire 1 % clk $end
$var wire 32 2 s1_out [31:0] $end
$var wire 32 3 w [31:0] $end
$var wire 8 4 mulx_out3 [7:0] $end
$var wire 8 5 mulx_out2 [7:0] $end
$var wire 8 6 mulx_out1 [7:0] $end
$var wire 8 7 mulx_out0 [7:0] $end
$var reg 32 8 r0 [31:0] $end
$var reg 32 9 r1 [31:0] $end
$var reg 32 : r2 [31:0] $end
$var reg 32 ; r3 [31:0] $end
$var reg 8 < srw0 [7:0] $end
$var reg 8 = srw1 [7:0] $end
$var reg 8 > srw2 [7:0] $end
$var reg 8 ? srw3 [7:0] $end
$scope module MULx_0 $end
$var wire 8 @ V [7:0] $end
$var wire 8 A c [7:0] $end
$var wire 1 % clk $end
$var reg 8 B mulx_out [7:0] $end
$upscope $end
$scope module MULx_1 $end
$var wire 8 C V [7:0] $end
$var wire 8 D c [7:0] $end
$var wire 1 % clk $end
$var reg 8 E mulx_out [7:0] $end
$upscope $end
$scope module MULx_2 $end
$var wire 8 F V [7:0] $end
$var wire 8 G c [7:0] $end
$var wire 1 % clk $end
$var reg 8 H mulx_out [7:0] $end
$upscope $end
$scope module MULx_3 $end
$var wire 8 I V [7:0] $end
$var wire 8 J c [7:0] $end
$var wire 1 % clk $end
$var reg 8 K mulx_out [7:0] $end
$upscope $end
$upscope $end
$scope module S_2 $end
$var wire 1 % clk $end
$var wire 32 L s2_out [31:0] $end
$var wire 32 M w [31:0] $end
$var wire 8 N mulx_out7 [7:0] $end
$var wire 8 O mulx_out6 [7:0] $end
$var wire 8 P mulx_out5 [7:0] $end
$var wire 8 Q mulx_out4 [7:0] $end
$var reg 32 R r0 [31:0] $end
$var reg 32 S r1 [31:0] $end
$var reg 32 T r2 [31:0] $end
$var reg 32 U r3 [31:0] $end
$var reg 8 V sqw0 [7:0] $end
$var reg 8 W sqw1 [7:0] $end
$var reg 8 X sqw2 [7:0] $end
$var reg 8 Y sqw3 [7:0] $end
$scope module MULx_0 $end
$var wire 8 Z V [7:0] $end
$var wire 8 [ c [7:0] $end
$var wire 1 % clk $end
$var reg 8 \ mulx_out [7:0] $end
$upscope $end
$scope module MULx_1 $end
$var wire 8 ] V [7:0] $end
$var wire 8 ^ c [7:0] $end
$var wire 1 % clk $end
$var reg 8 _ mulx_out [7:0] $end
$upscope $end
$scope module MULx_2 $end
$var wire 8 ` V [7:0] $end
$var wire 8 a c [7:0] $end
$var wire 1 % clk $end
$var reg 8 b mulx_out [7:0] $end
$upscope $end
$scope module MULx_3 $end
$var wire 8 c V [7:0] $end
$var wire 8 d c [7:0] $end
$var wire 1 % clk $end
$var reg 8 e mulx_out [7:0] $end
$upscope $end
$upscope $end
$upscope $end
$upscope $end
$enddefinitions $end
#0
$dumpvars
b1001010 e
b1101001 d
b100101 c
b1001010 b
b1101001 a
b100101 `
b1001010 _
b1101001 ^
b100101 ]
b1001010 \
b1101001 [
b100101 Z
b100101 Y
b100101 X
b100101 W
b100101 V
b100101 U
b100101 T
b100101 S
b100101 R
b1001010 Q
b1001010 P
b1001010 O
b1001010 N
b0 M
b100101001001010010010100100101 L
b11000110 K
b11011 J
b1100011 I
b11000110 H
b11011 G
b1100011 F
b11000110 E
b11011 D
b1100011 C
b11000110 B
b11011 A
b1100011 @
b1100011 ?
b1100011 >
b1100011 =
b1100011 <
b1100011 ;
b1100011 :
b1100011 9
b1100011 8
b11000110 7
b11000110 6
b11000110 5
b11000110 4
b0 3
b1100011011000110110001101100011 2
bx 1
bx 0
b1 /
b10100010100000111011100001011100100101010010110001001001000100001000001011000101101100110000000010000110100010100000100000011011101101110111111000000000101101111011010111001100001011011100101001100001001100011011100010100000110101000010100110111010011000000100100010000001111111110100100010010101001011000100100100010000100000101100010110110011000000000010101111010110010001011001111110110111011111100000000010110111011010101101001110110110111011110111110100111010010011001111111111010100001010011011101001100000 .
b0 -
bx ,
b1100011011000110110001101100011 +
b100101001001010010010100100101 *
b1001000100000011111111101001000100101010010110001001001000100001000001011000101101100110000000000101011110101100100010110011111 )
b11100000010111111010001011111110111110001111110011011001001011010110101011100010011011000010011101010000000100100011100010100 (
1'
b1001000100000011111111101001000100101010010110001001001000100001000001011000101101100110000000000101011110101100100010110011111 &
1%
b11100000010111111010001011111110111110001111110011011001001011010110101011100010011011000010011101010000000100100011100010100 $
b0 #
b10100010100000111011100001011100100101010010110001001001000100001000001011000101101100110000000010000110100010100000100000011011101101110111111000000000101101111011010111001100001011011100101001100001001100011011100010100000110101000010100110111010011000000100100010000001111111110100100010010101001011000100100100010000100000101100010110110011000000000010101111010110010001011001111110110111011111100000000010110111011010101101001110110110111011110111110100111010010011001111111111010100001010011011101001100000 "
bz !
$end
#5
0%
#7
0'
#10
b1001000011011000101101111000100 +
b1001000011011000101101111000100 2
b11011010 5
b11011010 H
b1010111 6
b1010111 E
b100110 7
b100110 B
b10010011100100111001001110010011 *
b10010011100100111001001110010011 L
b1001111 N
b1001111 e
b1001111 O
b1001111 b
b1001111 P
b1001111 _
b1001111 Q
b1001111 \
b11000100 ;
b1011011 :
b1101100 9
b1001000 8
b1101101 >
b1101101 F
b10100110 =
b10100110 C
b10011 <
b10011 @
b10010011 U
b10010011 T
b10010011 S
b10010011 R
b10010011 Y
b10010011 c
b10010011 X
b10010011 `
b10010011 W
b10010011 ]
b10010011 V
b10010011 Z
b10 /
b1001010010010100100101001001010110001101100011011000110110001110000010110001011011001100000000 #
b1001010010010100100101001001010110001101100011011000110110001110000010110001011011001100000000 -
b10010111110111110010100010000100101000101000001110111000010111001001010100101100010010010001000010000010110001011011001100000000100001101000101000001000000110111011011101111110000000001011011110110101110011000010110111001010011000010011000110111000101000001101010000101001101110100110000001001000100000011111111101001000100101010010110001001001000100001000001011000101101100110000000000101011110101100100010110011111101101110111111000000000101101110110101011010011101101101110111101111101001110100100110011111111 "
b10010111110111110010100010000100101000101000001110111000010111001001010100101100010010010001000010000010110001011011001100000000100001101000101000001000000110111011011101111110000000001011011110110101110011000010110111001010011000010011000110111000101000001101010000101001101110100110000001001000100000011111111101001000100101010010110001001001000100001000001011000101101100110000000000101011110101100100010110011111101101110111111000000000101101110110101011010011101101101110111101111101001110100100110011111111 .
b10010111110111110010100010000100 1
b10000010110001011011001100000000 3
b1100011011000110110001101100011 M
b10000010110001011011001100000000 0
b10100010100000111011100001011100 ,
1%
#15
0%
#20
b11101010111010111100010000100100 +
b11101010111010111100010000100100 2
b10001100 4
b10001100 K
b1111 5
b1111 H
b10100000 6
b10100000 E
b11111010 7
b11111010 B
b1001011011110000001010111101010 *
b1001011011110000001010111101010 L
b10101000 N
b10101000 e
b11011010 O
b11011010 b
b1101110 P
b1101110 _
b11101101 Q
b11101101 \
b100100 ;
b11000100 :
b11101011 9
b11101010 8
b1000110 ?
b1000110 I
b10001010 >
b10001010 F
b1010000 =
b1010000 C
b1111101 <
b1111101 @
b11101010 U
b10101 T
b1111000 S
b1001011 R
b1010100 Y
b1010100 c
b1101101 X
b1101101 `
b110111 W
b110111 ]
b11000010 V
b11000010 Z
b11 /
b100100111001001110010011100100110100100001101100010110111100010000010011011011001100111110011000 #
b100100111001001110010011100100110100100001101100010110111100010000010011011011001100111110011000 -
b110001000110111010001100000001100101111101111100101000100001001010001010000011101110000101110010010101001011000100100100010000100000101100010110110011000000001000011010001010000010000001101110110111011111100000000010110111101101011100110000101101110010100110000100110001101110001010000011010100001010011011101001100000010010001000000111111111010010001001010100101100010010010001000010000010110001011011001100000000001010111101011001000101100111111011011101111110000000001011011101101010110100111011011011101111 "
b110001000110111010001100000001100101111101111100101000100001001010001010000011101110000101110010010101001011000100100100010000100000101100010110110011000000001000011010001010000010000001101110110111011111100000000010110111101101011100110000101101110010100110000100110001101110001010000011010100001010011011101001100000010010001000000111111111010010001001010100101100010010010001000010000010110001011011001100000000001010111101011001000101100111111011011101111110000000001011011101101010110100111011011011101111 .
b110001000110111010001100000001 1
b10011011011001100111110011000 3
b1001000011011000101101111000100 M
b10011011011001100111110011000 0
b1111001110001111011100011100111 ,
1%
#25
0%
#30
b100001101001000011100001011011 +
b100001101001000011100001011011 2
b10101101 4
b10101101 K
b11001011 5
b11001011 H
b11111101 6
b11111101 E
b1001100 7
b1001100 B
b11100110011000101110110000100111 *
b11100110011000101110110000100111 L
b10000000 N
b10000000 e
b10101000 O
b10101000 b
b1011111 P
b1011111 _
b11101001 Q
b11101001 \
b1011011 ;
b111000 :
b10100100 9
b100001 8
b11011011 ?
b11011011 I
b11101000 >
b11101000 F
b11110011 =
b11110011 C
b100110 <
b100110 @
b100111 U
b11101100 T
b1100010 S
b11100110 R
b1000000 Y
b1000000 c
b1010100 X
b1010100 `
b10011011 W
b10011011 ]
b11000000 V
b11000000 Z
b100 /
b10010110111100000010101111010101110101011101011110001000010010000100011011111101100100010011111 #
b10010110111100000010101111010101110101011101011110001000010010000100011011111101100100010011111 -
b10100110100111111100101111001011001100010001101110100011000000011001011111011111001010001000010010100010100000111011100001011100100101010010110001001001000100001000001011000101101100110000000010000110100010100000100000011011101101110111111000000000101101111011010111001100001011011100101001100001001100011011100010100000110101000010100110111010011000000100100010000001111111110100100010010101001011000100100100010000100000101100010110110011000000000010101111010110010001011001111110110111011111100000000010110111 "
b10100110100111111100101111001011001100010001101110100011000000011001011111011111001010001000010010100010100000111011100001011100100101010010110001001001000100001000001011000101101100110000000010000110100010100000100000011011101101110111111000000000101101111011010111001100001011011100101001100001001100011011100010100000110101000010100110111010011000000100100010000001111111110100100010010101001011000100100100010000100000101100010110110011000000000010101111010110010001011001111110110111011111100000000010110111 .
b10100110100111111100101111001011 1
b100011011111101100100010011111 3
b11101010111010111100010000100100 M
b100011011111101100100010011111 0
b1100111001000010100101011101 ,
1%
#35
0%
#40
b10100111 9
b1100011101001111111011000000000 +
b1100011101001111111011000000000 2
b11010011 4
b11010011 K
b101 5
b101 H
b1001110 6
b1001110 E
b11111100 7
b11111100 B
b10111100001111110011101010001101 *
b10111100001111110011101010001101 L
b11011010 N
b11011010 e
b1110 O
b1110 b
b111 P
b111 _
b10111011 Q
b10111011 \
b0 ;
b11110110 :
b1100011 8
b11100100 ?
b11100100 I
b10001111 >
b10001111 F
b100111 =
b100111 C
b1111110 <
b1111110 @
b10001101 U
b111010 T
b111111 S
b10111100 R
b1101101 Y
b1101101 c
b111 X
b111 `
b10110111 W
b10110111 ]
b11101001 V
b11101001 Z
b101 /
b111001100110001011101100001001110010000110100100001110000101101110001010001111010111001110101110 #
b111001100110001011101100001001110010000110100100001110000101101110001010001111010111001110101110 -
b11100111011011110000101011011010101001101001111111001011110010110011000100011011101000110000000110010111110111110010100010000100101000101000001110111000010111001001010100101100010010010001000010000010110001011011001100000000100001101000101000001000000110111011011101111110000000001011011110110101110011000010110111001010011000010011000110111000101000001101010000101001101110100110000001001000100000011111111101001000100101010010110001001001000100001000001011000101101100110000000000101011110101100100010110011111 "
b11100111011011110000101011011010101001101001111111001011110010110011000100011011101000110000000110010111110111110010100010000100101000101000001110111000010111001001010100101100010010010001000010000010110001011011001100000000100001101000101000001000000110111011011101111110000000001011011110110101110011000010110111001010011000010011000110111000101000001101010000101001101110100110000001001000100000011111111101001000100101010010110001001001000100001000001011000101101100110000000000101011110101100100010110011111 .
b11100111011011110000101011011010 1
b10001010001111010111001110101110 3
b100001101001000011100001011011 M
b10001010001111010111001110101110 0
b100000111101010101000001001110 ,
1%
#45
0%
#50
b100000011100010010101000101101 +
b100000011100010010101000101101 2
b101011 4
b101011 K
b11001000 5
b11001000 H
b11010000 6
b11010000 E
b10011111 7
b10011111 B
b111001000111010000100010000011 *
b111001000111010000100010000011 L
b1001010 N
b1001010 e
b1000011 O
b1000011 b
b1110001 P
b1110001 _
b1001111 Q
b1001111 \
b101101 ;
b101010 :
b1110001 9
b100000 8
b10011000 ?
b10011000 I
b1100100 >
b1100100 F
b1101000 =
b1101000 C
b11000010 <
b11000010 @
b10000011 U
b1000 T
b11101 S
b111001 R
b100101 Y
b100101 c
b10010101 X
b10010101 `
b10001100 W
b10001100 ]
b10010011 V
b10010011 Z
b110 /
b101111000011111100111010100011010110001110100111111101100000000010101000111101111000110011100010 #
b101111000011111100111010100011010110001110100111111101100000000010101000111101111000110011100010 -
b10100101001011011100110100010010111001110110111100001010110110101010011010011111110010111100101100110001000110111010001100000001100101111101111100101000100001001010001010000011101110000101110010010101001011000100100100010000100000101100010110110011000000001000011010001010000010000001101110110111011111100000000010110111101101011100110000101101110010100110000100110001101110001010000011010100001010011011101001100000010010001000000111111111010010001001010100101100010010010001000010000010110001011011001100000000 "
b10100101001011011100110100010010111001110110111100001010110110101010011010011111110010111100101100110001000110111010001100000001100101111101111100101000100001001010001010000011101110000101110010010101001011000100100100010000100000101100010110110011000000001000011010001010000010000001101110110111011111100000000010110111101101011100110000101101110010100110000100110001101110001010000011010100001010011011101001100000010010001000000111111111010010001001010100101100010010010001000010000010110001011011001100000000 .
b10100101001011011100110100010010 1
b10101000111101111000110011100010 3
b1100011101001111111011000000000 M
b10101000111101111000110011100010 0
b1010000000010000100011011010011 ,
1%
#55
0%
#60
b1000000000110110001010100010001 +
b1000000000110110001010100010001 2
b1011011 4
b1011011 K
b10110101 5
b10110101 H
b101000 6
b101000 E
b1111000 7
b1111000 B
b1000101101001101110110101100000 *
b1000101101001101110110101100000 L
b101010 N
b101010 e
b110001 O
b110001 b
b11110 P
b11110 _
b11011001 Q
b11011001 \
b10001 ;
b10101 :
b11011 9
b1000000 8
b10100000 ?
b10100000 I
b11010111 >
b11010111 F
b10100 =
b10100 C
b111100 <
b111100 @
b1100000 U
b11101101 T
b10100110 S
b1000101 R
b10101 Y
b10101 c
b10101100 X
b10101100 `
b1111 W
b1111 ]
b11011000 V
b11011000 Z
b111 /
b1110010001110100001000100000110010000001110001001010100010110101101101100110110000110101000111 #
b1110010001110100001000100000110010000001110001001010100010110101101101100110110000110101000111 -
b11010001101001001101001100010101001010010110111001101000100101110011101101111000010101101101010100110100111111100101111001011001100010001101110100011000000011001011111011111001010001000010010100010100000111011100001011100100101010010110001001001000100001000001011000101101100110000000010000110100010100000100000011011101101110111111000000000101101111011010111001100001011011100101001100001001100011011100010100000110101000010100110111010011000000100100010000001111111110100100010010101001011000100100100010000 "
b11010001101001001101001100010101001010010110111001101000100101110011101101111000010101101101010100110100111111100101111001011001100010001101110100011000000011001011111011111001010001000010010100010100000111011100001011100100101010010110001001001000100001000001011000101101100110000000010000110100010100000100000011011101101110111111000000000101101111011010111001100001011011100101001100001001100011011100010100000110101000010100110111010011000000100100010000001111111110100100010010101001011000100100100010000 .
b11010001101001001101001100010 1
b1101101100110110000110101000111 3
b100000011100010010101000101101 M
b1101101100110110000110101000111 0
b101101100000101010111111110100 ,
1%
#65
0%
#70
b10010010011010111001010100001100 +
b10010010011010111001010100001100 2
b11000101 4
b11000101 K
b1000110 5
b1000110 H
b10010000 6
b10010000 E
b11010011 7
b11010011 B
b100010110100001111100000111 *
b100010110100001111100000111 L
b1110101 N
b1110101 e
b10111010 O
b10111010 b
b10111110 P
b10111110 _
b11111101 Q
b11111101 \
b1100 ;
b10010101 :
b1101011 9
b10010010 8
b11101111 ?
b11101111 I
b100011 >
b100011 F
b1001000 =
b1001000 C
b11100100 <
b11100100 @
b111 U
b11111 T
b1011010 S
b100 R
b10001110 Y
b10001110 c
b1011101 X
b1011101 `
b1011111 W
b1011111 ]
b11001010 V
b11001010 Z
b1000 /
b10001011010011011101101011000000100000000011011000101010001000110101110110101000011001001100001 #
b10001011010011011101101011000000100000000011011000101010001000110101110110101000011001001100001 -
b101010001010100100010011011011000110100011010010011010011000101010010100101101110011010001001011100111011011110000101011011010101001101001111111001011110010110011000100011011101000110000000110010111110111110010100010000100101000101000001110111000010111001001010100101100010010010001000010000010110001011011001100000000100001101000101000001000000110111011011101111110000000001011011110110101110011000010110111001010011000010011000110111000101000001101010000101001101110100110000001001000100000011111111101001000 "
b101010001010100100010011011011000110100011010010011010011000101010010100101101110011010001001011100111011011110000101011011010101001101001111111001011110010110011000100011011101000110000000110010111110111110010100010000100101000101000001110111000010111001001010100101100010010010001000010000010110001011011001100000000100001101000101000001000000110111011011101111110000000001011011110110101110011000010110111001010011000010011000110111000101000001101010000101001101110100110000001001000100000011111111101001000 .
b101010001010100100010011011011 1
b10101110110101000011001001100001 3
b1000000000110110001010100010001 M
b10101110110101000011001001100001 0
b10100111101111101000110110000100 ,
1%
#75
0%
#80
b11010111100111111011111001100100 +
b11010111100111111011111001100100 2
b11001000 4
b11001000 K
b1011010 5
b1011010 H
b1011011 6
b1011011 E
b11110110 7
b11110110 B
b101100101010000111001110101 *
b101100101010000111001110101 L
b11111010 N
b11111010 e
b11001 O
b11001 b
b1000100 P
b1000100 _
b11000 Q
b11000 \
b1100100 ;
b10111110 :
b10011111 9
b11010111 8
b1100100 ?
b1100100 I
b101101 >
b101101 F
b10100000 =
b10100000 C
b1111011 <
b1111011 @
b1110101 U
b1110 T
b10010101 S
b101 R
b1111101 Y
b1111101 c
b10111000 X
b10111000 `
b100010 W
b100010 ]
b1100 V
b1100 Z
b1001 /
b1000101101000011111000001111001001001101011100101010000110000000011010001111111101010001100 #
b1000101101000011111000001111001001001101011100101010000110000000011010001111111101010001100 -
b11111000100100100111100010010110001010100010101001000100110110110001101000110100100110100110001010100101001011011100110100010010111001110110111100001010110110101010011010011111110010111100101100110001000110111010001100000001100101111101111100101000100001001010001010000011101110000101110010010101001011000100100100010000100000101100010110110011000000001000011010001010000010000001101110110111011111100000000010110111101101011100110000101101110010100110000100110001101110001010000011010100001010011011101001100000 "
b11111000100100100111100010010110001010100010101001000100110110110001101000110100100110100110001010100101001011011100110100010010111001110110111100001010110110101010011010011111110010111100101100110001000110111010001100000001100101111101111100101000100001001010001010000011101110000101110010010101001011000100100100010000100000101100010110110011000000001000011010001010000010000001101110110111011111100000000010110111101101011100110000101101110010100110000100110001101110001010000011010100001010011011101001100000 .
b11111000100100100111100010010110 1
b11010001111111101010001100 3
b10010010011010111001010100001100 M
b11010001111111101010001100 0
b10011000111001010110001000101101 ,
1%
#85
0%
#90
b10011100110011111100100110011011 +
b10011100110011111100100110011011 2
b11111010 4
b11111010 K
b11101 5
b11101 H
b1010110 6
b1010110 E
b10110011 7
b10110011 B
b1101010111010011011001011110100 *
b1101010111010011011001011110100 L
b10010101 N
b10010101 e
b1011010 O
b1011010 b
b0 P
b0 _
b101100 Q
b101100 \
b10011011 ;
b11001001 :
b11001111 9
b10011100 8
b1111101 ?
b1111101 I
b10000011 >
b10000011 F
b101011 =
b101011 C
b11010100 <
b11010100 @
b11110100 U
b10110010 T
b11101001 S
b1101010 R
b11111110 Y
b11111110 c
b101101 X
b101101 `
b0 W
b0 ]
b10110 V
b10110 Z
b1010 /
b1011001010100001110011101011101011110011111101111100110010000011001000010110100000100010011 #
b1011001010100001110011101011101011110011111101111100110010000011001000010110100000100010011 -
b11001101001100101000010100011000111110001001001001111000100101100010101000101010010001001101101100011010001101001001101001100010101001010010110111001101000100101110011101101111000010101101101010100110100111111100101111001011001100010001101110100011000000011001011111011111001010001000010010100010100000111011100001011100100101010010110001001001000100001000001011000101101100110000000010000110100010100000100000011011101101110111111000000000101101111011010111001100001011011100101001100001001100011011100010100000 "
b11001101001100101000010100011000111110001001001001111000100101100010101000101010010001001101101100011010001101001001101001100010101001010010110111001101000100101110011101101111000010101101101010100110100111111100101111001011001100010001101110100011000000011001011111011111001010001000010010100010100000111011100001011100100101010010110001001001000100001000001011000101101100110000000010000110100010100000100000011011101101110111111000000000101101111011010111001100001011011100101001100001001100011011100010100000 .
b11001101001100101000010100011000 1
b11001000010110100000100010011 3
b11010111100111111011111001100100 M
b11001000010110100000100010011 0
b1101001101100011110011000101110 ,
1%
#95
0%
#100
b1010110111101000000100010010010 +
b1010110111101000000100010010010 2
b10100001 4
b10100001 K
b11010110 5
b11010110 H
b10001101 6
b10001101 E
b10001010 7
b10001010 B
b10010101000101011101001111100000 *
b10010101000101011101001111100000 L
b11001100 N
b11001100 e
b11111001 O
b11111001 b
b1010001 P
b1010001 _
b1101011 Q
b1101011 \
b10010010 ;
b1000 :
b11110100 9
b1010110 8
b11011101 ?
b11011101 I
b1101011 >
b1101011 F
b11001011 =
b11001011 C
b1000101 <
b1000101 @
b11100000 U
b11010011 T
b10101 S
b10010101 R
b1100110 Y
b1100110 c
b11001000 X
b11001000 `
b10011100 W
b10011100 ]
b10000001 V
b10000001 Z
b1011 /
b11010101110100110110010111101001001110011001111110010011001101101101000010110010000010111001001 #
b11010101110100110110010111101001001110011001111110010011001101101101000010110010000010111001001 -
b1110011000110011000001100100000110011010011001010000101000110001111100010010010011110001001011000101010001010100100010011011011000110100011010010011010011000101010010100101101110011010001001011100111011011110000101011011010101001101001111111001011110010110011000100011011101000110000000110010111110111110010100010000100101000101000001110111000010111001001010100101100010010010001000010000010110001011011001100000000100001101000101000001000000110111011011101111110000000001011011110110101110011000010110111001010 "
b1110011000110011000001100100000110011010011001010000101000110001111100010010010011110001001011000101010001010100100010011011011000110100011010010011010011000101010010100101101110011010001001011100111011011110000101011011010101001101001111111001011110010110011000100011011101000110000000110010111110111110010100010000100101000101000001110111000010111001001010100101100010010010001000010000010110001011011001100000000100001101000101000001000000110111011011101111110000000001011011110110101110011000010110111001010 .
b1110011000110011000001100100000 1
b1101000010110010000010111001001 3
b10011100110011111100100110011011 M
b1101000010110010000010111001001 0
b110001101000100111100001001111 ,
1%
#105
0%
#110
b11101110101000011111000110110011 +
b11101110101000011111000110110011 2
b110100 4
b110100 K
b10010000 5
b10010000 H
b100100 6
b100100 E
b10011010 7
b10011010 B
b101100010101110100111011000010 *
b101100010101110100111011000010 L
b11000 N
b11000 e
b100001 O
b100001 b
b111100 P
b111100 _
b10000010 Q
b10000010 \
b10110011 ;
b11110001 :
b10100001 9
b11101110 8
b11010 ?
b11010 I
b1001000 >
b1001000 F
b10010 =
b10010 C
b1001101 <
b1001101 @
b11000010 U
b1001110 T
b1010111 S
b101100 R
b1100 Y
b1100 c
b10100100 X
b10100100 `
b11110 W
b11110 ]
b1000001 V
b1000001 Z
b1100 /
b100101010001010111010011111000000101011011110100000010001001001001100101001110011101010001000011 #
b100101010001010111010011111000000101011011110100000010001001001001100101001110011101010001000011 -
b10110010011010000100011010101100011100110001100110000011001000001100110100110010100001010001100011111000100100100111100010010110001010100010101001000100110110110001101000110100100110100110001010100101001011011100110100010010111001110110111100001010110110101010011010011111110010111100101100110001000110111010001100000001100101111101111100101000100001001010001010000011101110000101110010010101001011000100100100010000100000101100010110110011000000001000011010001010000010000001101110110111011111100000000010110111 "
b10110010011010000100011010101100011100110001100110000011001000001100110100110010100001010001100011111000100100100111100010010110001010100010101001000100110110110001101000110100100110100110001010100101001011011100110100010010111001110110111100001010110110101010011010011111110010111100101100110001000110111010001100000001100101111101111100101000100001001010001010000011101110000101110010010101001011000100100100010000100000101100010110110011000000001000011010001010000010000001101110110111011111100000000010110111 .
b10110010011010000100011010101100 1
b1100101001110011101010001000011 3
b1010110111101000000100010010010 M
b1100101001110011101010001000011 0
b1000111101111010100000101110010 ,
1%
#115
0%
#120
b111000011011110110011111001010 +
b111000011011110110011111001010 2
b10000100 4
b10000100 K
b11110110 5
b11110110 H
b10000 6
b10000 E
b10001101 7
b10001101 B
b1111011000010001010110011001100 *
b1111011000010001010110011001100 L
b1011000 N
b1011000 e
b10101011 O
b10101011 b
b11110101 P
b11110101 _
b100000 Q
b100000 \
b11001010 ;
b1100111 :
b1101111 9
b111000 8
b1000010 ?
b1000010 I
b1111011 >
b1111011 F
b1000 =
b1000 C
b11001011 <
b11001011 @
b11001100 U
b10101100 T
b1000 S
b1111011 R
b101100 Y
b101100 c
b11100001 X
b11100001 `
b11001110 W
b11001110 ]
b10000 V
b10000 Z
b1101 /
b1011000101011101001110110000101110111010100001111100011011001101011001101111110000001111110110 #
b1011000101011101001110110000101110111010100001111100011011001101011001101111110000001111110110 -
b101011000001011010001100110011101100100110100001000110101011000111001100011001100000110010000011001101001100101000010100011000111110001001001001111000100101100010101000101010010001001101101100011010001101001001101001100010101001010010110111001101000100101110011101101111000010101101101010100110100111111100101111001011001100010001101110100011000000011001011111011111001010001000010010100010100000111011100001011100100101010010110001001001000100001000001011000101101100110000000010000110100010100000100000011011 "
b101011000001011010001100110011101100100110100001000110101011000111001100011001100000110010000011001101001100101000010100011000111110001001001001111000100101100010101000101010010001001101101100011010001101001001101001100010101001010010110111001101000100101110011101101111000010101101101010100110100111111100101111001011001100010001101110100011000000011001011111011111001010001000010010100010100000111011100001011100100101010010110001001001000100001000001011000101101100110000000010000110100010100000100000011011 .
b101011000001011010001100110011 1
b1011001101111110000001111110110 3
b11101110101000011111000110110011 M
b1011001101111110000001111110110 0
b1000001010101100001001001111101 ,
1%
#125
0%
#130
b10101000100010110100110011001010 +
b10101000100010110100110011001010 2
b1110000 4
b1110000 K
b100111 5
b100111 H
b1010000 6
b1010000 E
b1010110 7
b1010110 B
b11110101110001100000101010010110 *
b11110101110001100000101010010110 L
b1010011 N
b1010011 e
b11110111 O
b11110111 b
b10011101 P
b10011101 _
b1110 Q
b1110 \
b11001010 ;
b1001100 :
b10001011 9
b10101000 8
b111000 ?
b111000 I
b10011110 >
b10011110 F
b101000 =
b101000 C
b101011 <
b101011 @
b10010110 U
b1010 T
b11000110 S
b11110101 R
b10011101 Y
b10011101 c
b11001111 X
b11001111 `
b11111010 W
b11111010 ]
b111 V
b111 Z
b1110 /
b11110110000100010101100110011000011100001101111011001111100101000001011111011101101111101110110 #
b11110110000100010101100110011000011100001101111011001111100101000001011111011101101111101110110 -
b110000110011001001001010001010110000010110100011001100111011001001101000010001101010110001110011000110011000001100100000110011010011001010000101000110001111100010010010011110001001011000101010001010100100010011011011000110100011010010011010011000101010010100101101110011010001001011100111011011110000101011011010101001101001111111001011110010110011000100011011101000110000000110010111110111110010100010000100101000101000001110111000010111001001010100101100010010010001000010000010110001011011001100000000 "
b110000110011001001001010001010110000010110100011001100111011001001101000010001101010110001110011000110011000001100100000110011010011001010000101000110001111100010010010011110001001011000101010001010100100010011011011000110100011010010011010011000101010010100101101110011010001001011100111011011110000101011011010101001101001111111001011110010110011000100011011101000110000000110010111110111110010100010000100101000101000001110111000010111001001010100101100010010010001000010000010110001011011001100000000 .
b110000110011001001001010 1
b1011111011101101111101110110 3
b111000011011110110011111001010 M
b1011111011101101111101110110 0
b1101010011001010101011010011010 ,
1%
#135
0%
#140
b101000101000101100010111010010 +
b101000101000101100010111010010 2
b1111100 4
b1111100 K
b1101 5
b1101 H
b11011110 6
b11011110 E
b10001110 7
b10001110 B
b11000001010011010001010110000000 *
b11000001010011010001010110000000 L
b1010111 O
b1010111 b
b11000100 P
b11000100 _
b11110010 Q
b11110010 \
b11010010 ;
b11000101 :
b10100010 9
b101000 8
b111110 ?
b111110 I
b10001011 >
b10001011 F
b1101111 =
b1101111 C
b1000111 <
b1000111 @
b10000000 U
b10101 T
b1001101 S
b11000001 R
b10011111 X
b10011111 `
b1100010 W
b1100010 ]
b1111001 V
b1111001 Z
b1111 /
b111101011100011000001010100101101010100010001011010011001100101000010110000001101100111011010001 #
b111101011100011000001010100101101010100010001011010011001100101000010110000001101100111011010001 -
b10000001000010101110011110011111000000001100001100110010010010100010101100000101101000110011001110110010011010000100011010101100011100110001100110000011001000001100110100110010100001010001100011111000100100100111100010010110001010100010101001000100110110110001101000110100100110100110001010100101001011011100110100010010111001110110111100001010110110101010011010011111110010111100101100110001000110111010001100000001100101111101111100101000100001001010001010000011101110000101110010010101001011000100100100010000 "
b10000001000010101110011110011111000000001100001100110010010010100010101100000101101000110011001110110010011010000100011010101100011100110001100110000011001000001100110100110010100001010001100011111000100100100111100010010110001010100010101001000100110110110001101000110100100110100110001010100101001011011100110100010010111001110110111100001010110110101010011010011111110010111100101100110001000110111010001100000001100101111101111100101000100001001010001010000011101110000101110010010101001011000100100100010000 .
b10000001000010101110011110011111 1
b10110000001101100111011010001 3
b10101000100010110100110011001010 M
b10110000001101100111011010001 0
b110100110111010111011000001010 ,
1%
#145
0%
