Project/snow3g/Keystream.vcd
$date
	Tue Aug 22 13:45:57 2023
$end
$version
	Icarus Verilog
$end
$timescale
	1s
$end
$scope module keystreamtest $end
$var wire 96 ! z [95:0] $end
$var wire 512 " LFSR_out [511:0] $end
$var wire 96 # FSM_out [95:0] $end
$var reg 128 $ IV [127:0] $end
$var reg 1 % clk $end
$var reg 128 & k [127:0] $end
$var reg 1 ' rst $end
$scope module DUT $end
$var wire 128 ( IV [127:0] $end
$var wire 1 % clk $end
$var wire 128 ) k [127:0] $end
$var wire 1 ' reset $end
$var wire 32 * s_2_out [31:0] $end
$var wire 32 + s_1_out [31:0] $end
$var reg 32 , F [31:0] $end
$var reg 96 - FSM_out [95:0] $end
$var reg 512 . LFSR_out [511:0] $end
$var reg 32 / counter [31:0] $end
$var reg 32 0 genkey [31:0] $end
$var reg 32 1 r [31:0] $end
$var reg 32 2 temp [31:0] $end
$var reg 32 3 v_1 [31:0] $end
$var reg 32 4 v_2 [31:0] $end
$var reg 96 5 z [95:0] $end
$scope module S_1 $end
$var wire 1 % clk $end
$var wire 32 6 s1_out [31:0] $end
$var wire 32 7 w [31:0] $end
$var wire 8 8 mulx_out3 [7:0] $end
$var wire 8 9 mulx_out2 [7:0] $end
$var wire 8 : mulx_out1 [7:0] $end
$var wire 8 ; mulx_out0 [7:0] $end
$var reg 32 < r0 [31:0] $end
$var reg 32 = r1 [31:0] $end
$var reg 32 > r2 [31:0] $end
$var reg 32 ? r3 [31:0] $end
$var reg 8 @ srw0 [7:0] $end
$var reg 8 A srw1 [7:0] $end
$var reg 8 B srw2 [7:0] $end
$var reg 8 C srw3 [7:0] $end
$scope module MULx_0 $end
$var wire 8 D V [7:0] $end
$var wire 8 E c [7:0] $end
$var wire 1 % clk $end
$var reg 8 F mulx_out [7:0] $end
$upscope $end
$scope module MULx_1 $end
$var wire 8 G V [7:0] $end
$var wire 8 H c [7:0] $end
$var wire 1 % clk $end
$var reg 8 I mulx_out [7:0] $end
$upscope $end
$scope module MULx_2 $end
$var wire 8 J V [7:0] $end
$var wire 8 K c [7:0] $end
$var wire 1 % clk $end
$var reg 8 L mulx_out [7:0] $end
$upscope $end
$scope module MULx_3 $end
$var wire 8 M V [7:0] $end
$var wire 8 N c [7:0] $end
$var wire 1 % clk $end
$var reg 8 O mulx_out [7:0] $end
$upscope $end
$upscope $end
$scope module S_2 $end
$var wire 1 % clk $end
$var wire 32 P s2_out [31:0] $end
$var wire 32 Q w [31:0] $end
$var wire 8 R mulx_out7 [7:0] $end
$var wire 8 S mulx_out6 [7:0] $end
$var wire 8 T mulx_out5 [7:0] $end
$var wire 8 U mulx_out4 [7:0] $end
$var reg 32 V r0 [31:0] $end
$var reg 32 W r1 [31:0] $end
$var reg 32 X r2 [31:0] $end
$var reg 32 Y r3 [31:0] $end
$var reg 8 Z sqw0 [7:0] $end
$var reg 8 [ sqw1 [7:0] $end
$var reg 8 \ sqw2 [7:0] $end
$var reg 8 ] sqw3 [7:0] $end
$scope module MULx_0 $end
$var wire 8 ^ V [7:0] $end
$var wire 8 _ c [7:0] $end
$var wire 1 % clk $end
$var reg 8 ` mulx_out [7:0] $end
$upscope $end
$scope module MULx_1 $end
$var wire 8 a V [7:0] $end
$var wire 8 b c [7:0] $end
$var wire 1 % clk $end
$var reg 8 c mulx_out [7:0] $end
$upscope $end
$scope module MULx_2 $end
$var wire 8 d V [7:0] $end
$var wire 8 e c [7:0] $end
$var wire 1 % clk $end
$var reg 8 f mulx_out [7:0] $end
$upscope $end
$scope module MULx_3 $end
$var wire 8 g V [7:0] $end
$var wire 8 h c [7:0] $end
$var wire 1 % clk $end
$var reg 8 i mulx_out [7:0] $end
$upscope $end
$upscope $end
$upscope $end
$upscope $end
$enddefinitions $end
#0
$dumpvars
b1001010 i
b1101001 h
b100101 g
b1001010 f
b1101001 e
b100101 d
b1001010 c
b1101001 b
b100101 a
b1001010 `
b1101001 _
b100101 ^
b100101 ]
b100101 \
b100101 [
b100101 Z
b100101 Y
b100101 X
b100101 W
b100101 V
b1001010 U
b1001010 T
b1001010 S
b1001010 R
b0 Q
b100101001001010010010100100101 P
b11000110 O
b11011 N
b1100011 M
b11000110 L
b11011 K
b1100011 J
b11000110 I
b11011 H
b1100011 G
b11000110 F
b11011 E
b1100011 D
b1100011 C
b1100011 B
b1100011 A
b1100011 @
b1100011 ?
b1100011 >
b1100011 =
b1100011 <
b11000110 ;
b11000110 :
b11000110 9
b11000110 8
b0 7
b1100011011000110110001101100011 6
bx 5
bx 4
bx 3
bx 2
bx 1
b0 0
b1 /
b1111111011001100000100011101100001100110101001000100101010110100001000010011100111110010010111001001100010010101011011010101010111010111111000111110000100010011101011101000010000011010011101010010000101111111100010011100010111100100001001010001101100111000001010000001110000011110111011000110011010100100010010101011010000100001001110011111001001011100000110111101101011100100110001111101011111100011111000010001001110011001010110111011010101001011110111101100011000001101101000111110010000100101000110110011100 .
b0 -
bx ,
b1100011011000110110001101100011 +
b100101001001010010010100100101 *
b10100000011100000111101110110001100110101001000100101010110100001000010011100111110010010111000001101111011010111001001100011 )
b1111111110111001100001000110011000110111110111111010111100111110100000110100111110001001100100101101011011010000000011110011010 (
1'
b10100000011100000111101110110001100110101001000100101010110100001000010011100111110010010111000001101111011010111001001100011 &
1%
b1111111110111001100001000110011000110111110111111010111100111110100000110100111110001001100100101101011011010000000011110011010 $
b0 #
b1111111011001100000100011101100001100110101001000100101010110100001000010011100111110010010111001001100010010101011011010101010111010111111000111110000100010011101011101000010000011010011101010010000101111111100010011100010111100100001001010001101100111000001010000001110000011110111011000110011010100100010010101011010000100001001110011111001001011100000110111101101011100100110001111101011111100011111000010001001110011001010110111011010101001011110111101100011000001101101000111110010000100101000110110011100 "
bx !
$end
#5
0%
#7
0'
#10
b10011011010010101010101111000110 +
b10011011010010101010101111000110 6
b1100010 8
b1100010 O
b101001 9
b101001 L
b10100111 :
b10100111 I
b10001111 ;
b10001111 F
b10010011100100111001001110010011 *
b10010011100100111001001110010011 P
b1001111 R
b1001111 i
b1001111 S
b1001111 f
b1001111 T
b1001111 c
b1001111 U
b1001111 `
b11000110 ?
b10101011 >
b1001010 =
b10011011 <
b110001 C
b110001 M
b10011001 B
b10011001 J
b11011110 A
b11011110 G
b11001010 @
b11001010 D
b10010011 Y
b10010011 X
b10010011 W
b10010011 V
b10010011 ]
b10010011 g
b10010011 \
b10010011 d
b10010011 [
b10010011 a
b10010011 Z
b10010011 ^
b10 /
b1001010010010100100101001001010110001101100011011000110110001100010000100111001111100100101110 #
b1001010010010100100101001001010110001101100011011000110110001100010000100111001111100100101110 -
b10010101101110111100111110110101011111110110011000001000111011000011001101010010001001010101101000010000100111001111100100101110010011000100101010110110101010101110101111110001111100001000100111010111010000100000110100111010100100001011111111000100111000101111001000010010100011011001110000010100000011100000111101110110001100110101001000100101010110100001000010011100111110010010111000001101111011010111001001100011111010111111000111110000100010011100110010101101110110101010010111101111011000110000011011010001 "
b10010101101110111100111110110101011111110110011000001000111011000011001101010010001001010101101000010000100111001111100100101110010011000100101010110110101010101110101111110001111100001000100111010111010000100000110100111010100100001011111111000100111000101111001000010010100011011001110000010100000011100000111101110110001100110101001000100101010110100001000010011100111110010010111000001101111011010111001001100011111010111111000111110000100010011100110010101101110110101010010111101111011000110000011011010001 .
b10010101101110111100111110110101 3
b10000100111001111100100101110 7
b1100011011000110110001101100011 Q
b10000100111001111100100101110 1
b1111111011001100000100011101100 ,
1%
#15
0%
#20
b1101000000011000011101011011100 +
b1101000000011000011101011011100 6
b101011 8
b101011 O
b11101101 9
b11101101 L
b10101110 :
b10101110 I
b1110111 ;
b1110111 F
b10000100111000000011101011011001 *
b10000100111000000011101011011001 P
b10101001 R
b10101001 i
b10111 S
b10111 f
b10101 T
b10101 c
b11001100 U
b11001100 `
b11011100 ?
b111010 >
b1100 =
b1101000 <
b10011000 C
b10011000 M
b11111011 B
b11111011 J
b1010111 A
b1010111 G
b10110110 @
b10110110 D
b11011001 Y
b111010 X
b11100000 W
b10000100 V
b11100000 ]
b11100000 g
b10111111 \
b10111111 d
b10111110 [
b10111110 a
b1100110 Z
b1100110 ^
b11 /
b100100111001001110010011100100111001101101001010101010111100011001111001110110100110001111100010 #
b100100111001001110010011100100111001101101001010101010111100011001111001110110100110001111100010 -
b111011100101101010001001110001100101011011101111001111101101010111111101100110000010001110110000110011010100100010010101011010000100001001110011111001001011100100110001001010101101101010101011101011111100011111000010001001110101110100001000001101001110101001000010111111110001001110001011110010000100101000110110011100000101000000111000001111011101100011001101010010001001010101101000010000100111001111100100101110000011011110110101110010011000111110101111110001111100001000100111001100101011011101101010100101 "
b111011100101101010001001110001100101011011101111001111101101010111111101100110000010001110110000110011010100100010010101011010000100001001110011111001001011100100110001001010101101101010101011101011111100011111000010001001110101110100001000001101001110101001000010111111110001001110001011110010000100101000110110011100000101000000111000001111011101100011001101010010001001010101101000010000100111001111100100101110000011011110110101110010011000111110101111110001111100001000100111001100101011011101101010100101 .
b111011100101101010001001110001 3
b1111001110110100110001111100010 7
b10011011010010101010101111000110 Q
b1111001110110100110001111100010 1
b11000101001110111010101110000000 ,
1%
#25
0%
#30
b1010010101100111110001100111010 +
b1010010101100111110001100111010 6
b11000100 8
b11000100 O
b10100100 9
b10100100 L
b101101 :
b101101 I
b111101 ;
b111101 F
b1010110010100001011100111101110 *
b1010110010100001011100111101110 P
b11000010 R
b11000010 i
b11100 S
b11100 f
b11111010 T
b11111010 c
b10000110 U
b10000110 `
b111010 ?
b11100011 >
b10110011 =
b1010010 <
b1100010 C
b1100010 M
b1010010 B
b1010010 J
b10011011 A
b10011011 G
b10010011 @
b10010011 D
b11101110 Y
b10111001 X
b1010000 W
b1010110 V
b1100001 ]
b1100001 g
b1110 \
b1110 d
b1111101 [
b1111101 a
b1000011 Z
b1000011 ^
b100 /
b100001001110000000111010110110010110100000001100001110101101110000100010111010000100100010101011 #
b100001001110000000111010110110010110100000001100001110101101110000100010111010000100100010101011 -
b11100111110101001111010000101000001110111001011010100010011100011001010110111011110011111011010101111111011001100000100011101100001100110101001000100101010110100001000010011100111110010010111001001100010010101011011010101010111010111111000111110000100010011101011101000010000011010011101010010000101111111100010011100010111100100001001010001101100111000001010000001110000011110111011000110011010100100010010101011010000100001001110011111001001011100000110111101101011100100110001111101011111100011111000010001001 "
b11100111110101001111010000101000001110111001011010100010011100011001010110111011110011111011010101111111011001100000100011101100001100110101001000100101010110100001000010011100111110010010111001001100010010101011011010101010111010111111000111110000100010011101011101000010000011010011101010010000101111111100010011100010111100100001001010001101100111000001010000001110000011110111011000110011010100100010010101011010000100001001110011111001001011100000110111101101011100100110001111101011111100011111000010001001 .
b11100111110101001111010000101000 3
b100010111010000100100010101011 7
b1101000000011000011101011011100 Q
b100010111010000100100010101011 1
b101110001110111010110110010101 ,
1%
#35
0%
#40
b10100001111100011111111000111 +
b10100001111100011111111000111 6
b11100001 8
b11100001 O
b1001 9
b1001 L
b1101101 :
b1101101 I
b111010 ;
b111010 F
b10011100100111001111011011001110 *
b10011100100111001111011011001110 P
b11100 R
b11100 i
b11100100 S
b11100100 f
b1011000 T
b1011000 c
b11010000 U
b11010000 `
b11000111 ?
b111111 >
b111110 =
b10100 <
b11111101 C
b11111101 M
b10001001 B
b10001001 J
b10111011 A
b10111011 G
b11101 @
b11101 D
b11001110 Y
b11110110 X
b10011100 W
b10011100 V
b1110 ]
b1110 g
b1110010 \
b1110010 d
b101100 [
b101100 a
b1101000 Z
b1101000 ^
b101 /
b10101100101000010111001111011100101001010110011111000110011101011011110111111101111001000100001 #
b10101100101000010111001111011100101001010110011111000110011101011011110111111101111001000100001 -
b11101110110010001111100110000111001111101010011110100001010000011101110010110101000100111000110010101101110111100111110110101011111110110011000001000111011000011001101010010001001010101101000010000100111001111100100101110010011000100101010110110101010101110101111110001111100001000100111010111010000100000110100111010100100001011111111000100111000101111001000010010100011011001110000010100000011100000111101110110001100110101001000100101010110100001000010011100111110010010111000001101111011010111001001100011 "
b11101110110010001111100110000111001111101010011110100001010000011101110010110101000100111000110010101101110111100111110110101011111110110011000001000111011000011001101010010001001010101101000010000100111001111100100101110010011000100101010110110101010101110101111110001111100001000100111010111010000100000110100111010100100001011111111000100111000101111001000010010100011011001110000010100000011100000111101110110001100110101001000100101010110100001000010011100111110010010111000001101111011010111001001100011 .
b11101110110010001111100110000 3
b11011110111111101111001000100001 7
b1010010101100111110001100111010 Q
b11011110111111101111001000100001 1
b1100010101100010000011000001111 ,
1%
#45
0%
#50
b10000111111110010010101100000001 +
b10000111111110010010101100000001 6
b10110100 8
b10110100 O
b10111011 9
b10111011 L
b10100 :
b10100 I
b10110011 ;
b10110011 F
b10001011010001100100010010100011 *
b10001011010001100100010010100011 P
b1110000 R
b1110000 i
b11000001 S
b11000001 f
b1111011 T
b1111011 c
b10011110 U
b10011110 `
b1 ?
b101011 >
b11111001 =
b10000111 <
b1011010 C
b1011010 M
b11010000 B
b11010000 J
b1010 A
b1010 G
b11010100 @
b11010100 D
b10100011 Y
b1000100 X
b1000110 W
b10001011 V
b111000 ]
b111000 g
b11010100 \
b11010100 d
b10001001 [
b10001001 a
b1001111 Z
b1001111 ^
b110 /
b100111001001110011110110110011100001010000111110001111111100011100011001101000110110000001000110 #
b100111001001110011110110110011100001010000111110001111111100011100011001101000110110000001000110 -
b11110101100110011001010111010011000111011101100100011111001100001110011111010100111101000010100000111011100101101010001001110001100101011011101111001111101101010111111101100110000010001110110000110011010100100010010101011010000100001001110011111001001011100100110001001010101101101010101011101011111100011111000010001001110101110100001000001101001110101001000010111111110001001110001011110010000100101000110110011100000101000000111000001111011101100011001101010010001001010101101000010000100111001111100100101110 "
b11110101100110011001010111010011000111011101100100011111001100001110011111010100111101000010100000111011100101101010001001110001100101011011101111001111101101010111111101100110000010001110110000110011010100100010010101011010000100001001110011111001001011100100110001001010101101101010101011101011111100011111000010001001110101110100001000001101001110101001000010111111110001001110001011110010000100101000110110011100000101000000111000001111011101100011001101010010001001010101101000010000100111001111100100101110 .
b11110101100110011001010111010011 3
b11001101000110110000001000110 7
b10100001111100011111111000111 Q
b11001101000110110000001000110 1
b10101110011010111111001001101011 ,
1%
#55
0%
#60
b11011000001100000001001010000110 +
b11011000001100000001001010000110 6
b11001111 8
b11001111 O
b11011111 9
b11011111 L
b1010011 :
b1010011 I
b10111011 ;
b10111011 F
b111100110000101110011100001 *
b111100110000101110011100001 P
b1001000 R
b1001000 i
b10101111 S
b10101111 f
b110010 T
b110010 c
b10010001 U
b10010001 `
b10000110 ?
b10010 >
b110000 =
b11011000 <
b11101010 C
b11101010 M
b11100010 B
b11100010 J
b10100100 A
b10100100 G
b11010000 @
b11010000 D
b11100001 Y
b1011100 X
b10011000 W
b111 V
b100100 ]
b100100 g
b11100011 \
b11100011 d
b11001 [
b11001 a
b11111100 Z
b11111100 ^
b111 /
b100010110100011001000100101000111000011111111001001010110000000101100000000111010011101110111011 #
b100010110100011001000100101000111000011111111001001010110000000101100000000111010011101110111011 -
b1111011100000000100100100100111111101011001100110010101110100110001110111011001000111110011000011100111110101001111010000101000001110111001011010100010011100011001010110111011110011111011010101111111011001100000100011101100001100110101001000100101010110100001000010011100111110010010111001001100010010101011011010101010111010111111000111110000100010011101011101000010000011010011101010010000101111111100010011100010111100100001001010001101100111000001010000001110000011110111011000110011010100100010010101011010 "
b1111011100000000100100100100111111101011001100110010101110100110001110111011001000111110011000011100111110101001111010000101000001110111001011010100010011100011001010110111011110011111011010101111111011001100000100011101100001100110101001000100101010110100001000010011100111110010010111001001100010010101011011010101010111010111111000111110000100010011101011101000010000011010011101010010000101111111100010011100010111100100001001010001101100111000001010000001110000011110111011000110011010100100010010101011010 .
b1111011100000000100100100100111 3
b1100000000111010011101110111011 7
b10000111111110010010101100000001 Q
b1100000000111010011101110111011 1
b11011000000101100100111011110 ,
1%
#65
0%
#70
b1011100000011000111111100111100 +
b1011100000011000111111100111100 6
b11111001 8
b11111001 O
b100111 9
b100111 L
b11010101 :
b11010101 I
b101101 ;
b101101 F
b101110101000101011000000100 *
b101110101000101011000000100 P
b11010 R
b11010 i
b10010000 S
b10010000 f
b1101 T
b1101 c
b11101000 U
b11101000 `
b111100 ?
b1111111 >
b1100 =
b1011100 <
b11110001 C
b11110001 M
b10011110 B
b10011110 J
b11100111 A
b11100111 G
b10011011 @
b10011011 D
b100 Y
b1010110 X
b11010100 W
b101 V
b1101 ]
b1101 g
b1001000 \
b1001000 d
b10110010 [
b10110010 a
b1110100 Z
b1110100 ^
b1000 /
b1111001100001011100111000011101100000110000000100101000011011101000101100001101111100101011 #
b1111001100001011100111000011101100000110000000100101000011011101000101100001101111100101011 -
b10101111110001000101000110110000011110111000000001001001001001111111010110011001100101011101001100011101110110010001111100110000111001111101010011110100001010000011101110010110101000100111000110010101101110111100111110110101011111110110011000001000111011000011001101010010001001010101101000010000100111001111100100101110010011000100101010110110101010101110101111110001111100001000100111010111010000100000110100111010100100001011111111000100111000101111001000010010100011011001110000010100000011100000111101110110 "
b10101111110001000101000110110000011110111000000001001001001001111111010110011001100101011101001100011101110110010001111100110000111001111101010011110100001010000011101110010110101000100111000110010101101110111100111110110101011111110110011000001000111011000011001101010010001001010101101000010000100111001111100100101110010011000100101010110110101010101110101111110001111100001000100111010111010000100000110100111010100100001011111111000100111000101111001000010010100011011001110000010100000011100000111101110110 .
b10101111110001000101000110110000 3
b11101000101100001101111100101011 7
b11011000001100000001001010000110 Q
b11101000101100001101111100101011 1
b1011100011001001010111111100011 ,
1%
#75
0%
#80
b11101001001110101110101011110110 +
b11101001001110101110101011110110 6
b1111100 8
b1111100 O
b1111011 9
b1111011 L
b11101110 :
b11101110 I
b1101100 ;
b1101100 F
b1001110001001100010111101111100 *
b1001110001001100010111101111100 P
b10100010 R
b10100010 i
b10110100 S
b10110100 f
b11111010 T
b11111010 c
b10011010 U
b10011010 `
b11110110 ?
b11101010 >
b111010 =
b11101001 <
b111110 C
b111110 M
b10110000 B
b10110000 J
b1110111 A
b1110111 G
b110110 @
b110110 D
b1111100 Y
b101111 X
b100110 W
b1001110 V
b1010001 ]
b1010001 g
b1011010 \
b1011010 d
b1111101 [
b1111101 a
b1001101 Z
b1001101 ^
b1001 /
b1011101010001010110000001000101110000001100011111110011110000100100000000101111110011010001 #
b1011101010001010110000001000101110000001100011111110011110000100100000000101111110011010001 -
b10010000010000110111111000110000101011111100010001010001101100000111101110000000010010010010011111110101100110011001010111010011000111011101100100011111001100001110011111010100111101000010100000111011100101101010001001110001100101011011101111001111101101010111111101100110000010001110110000110011010100100010010101011010000100001001110011111001001011100100110001001010101101101010101011101011111100011111000010001001110101110100001000001101001110101001000010111111110001001110001011110010000100101000110110011100 "
b10010000010000110111111000110000101011111100010001010001101100000111101110000000010010010010011111110101100110011001010111010011000111011101100100011111001100001110011111010100111101000010100000111011100101101010001001110001100101011011101111001111101101010111111101100110000010001110110000110011010100100010010101011010000100001001110011111001001011100100110001001010101101101010101011101011111100011111000010001001110101110100001000001101001110101001000010111111110001001110001011110010000100101000110110011100 .
b10010000010000110111111000110000 3
b100100000000101111110011010001 7
b1011100000011000111111100111100 Q
b100100000000101111110011010001 1
b1000000010001010010001001011101 ,
1%
#85
0%
#90
b11000101000111111110110101101010 +
b11000101000111111110110101101010 6
b1100110 8
b1100110 O
b1100010 9
b1100010 L
b11100011 :
b11100011 I
b1011101 ;
b1011101 F
b1101110000001000101010101011111 *
b1101110000001000101010101011111 P
b1000011 R
b1000011 i
b11101001 S
b11101001 f
b11100 T
b11100 c
b1110110 U
b1110110 `
b1101010 ?
b11101101 >
b11111 =
b11000101 <
b110011 C
b110011 M
b110001 B
b110001 J
b11111100 A
b11111100 G
b10100011 @
b10100011 D
b1011111 Y
b1010101 X
b100 W
b1101110 V
b10010101 ]
b10010101 g
b11000000 \
b11000000 d
b1110 [
b1110 a
b111011 Z
b111011 ^
b1010 /
b10011100010011000101111011111001110100100111010111010101111011001110001010101010010111001100110 #
b10011100010011000101111011111001110100100111010111010101111011001110001010101010010111001100110 -
b1011011110011010110010101100111100100000100001101111110001100001010111111000100010100011011000001111011100000000100100100100111111101011001100110010101110100110001110111011001000111110011000011100111110101001111010000101000001110111001011010100010011100011001010110111011110011111011010101111111011001100000100011101100001100110101001000100101010110100001000010011100111110010010111001001100010010101011011010101010111010111111000111110000100010011101011101000010000011010011101010010000101111111100010011100010 "
b1011011110011010110010101100111100100000100001101111110001100001010111111000100010100011011000001111011100000000100100100100111111101011001100110010101110100110001110111011001000111110011000011100111110101001111010000101000001110111001011010100010011100011001010110111011110011111011010101111111011001100000100011101100001100110101001000100101010110100001000010011100111110010010111001001100010010101011011010101010111010111111000111110000100010011101011101000010000011010011101010010000101111111100010011100010 .
b1011011110011010110010101100111 3
b1110001010101010010111001100110 7
b11101001001110101110101011110110 Q
b1110001010101010010111001100110 1
b11101000010010100000010000111101 ,
1%
#95
0%
#100
b11011011111111000100111111000101 +
b11011011111111000100111111000101 6
b100011 8
b100011 O
b11010111 9
b11010111 L
b11010011 :
b11010011 I
b1100110 ;
b1100110 F
b10111111100110010100010110100011 *
b10111111100110010100010110100011 P
b1100010 R
b1100010 i
b110000 S
b110000 f
b10101101 T
b10101101 c
b10110 U
b10110 `
b11000101 ?
b1001111 >
b11111100 =
b11011011 <
b10011100 C
b10011100 M
b11100110 B
b11100110 J
b11100100 A
b11100100 G
b110011 @
b110011 D
b10100011 Y
b1000101 X
b10011001 W
b10111111 V
b110001 ]
b110001 g
b11000 \
b11000 d
b11100010 [
b11100010 a
b1011 Z
b1011 ^
b1011 /
b11011100000010001010101010111111100010100011111111011010110101001100110101011101111010100011100 #
b11011100000010001010101010111111100010100011111111011010110101001100110101011101111010100011100 -
b1101110111101000010001000000011010110111100110101100101011001111001000001000011011111100011000010101111110001000101000110110000011110111000000001001001001001111111010110011001100101011101001100011101110110010001111100110000111001111101010011110100001010000011101110010110101000100111000110010101101110111100111110110101011111110110011000001000111011000011001101010010001001010101101000010000100111001111100100101110010011000100101010110110101010101110101111110001111100001000100111010111010000100000110100111010 "
b1101110111101000010001000000011010110111100110101100101011001111001000001000011011111100011000010101111110001000101000110110000011110111000000001001001001001111111010110011001100101011101001100011101110110010001111100110000111001111101010011110100001010000011101110010110101000100111000110010101101110111100111110110101011111110110011000001000111011000011001101010010001001010101101000010000100111001111100100101110010011000100101010110110101010101110101111110001111100001000100111010111010000100000110100111010 .
b1101110111101000010001000000011 3
b1100110101011101111010100011100 7
b11000101000111111110110101101010 Q
b1100110101011101111010100011100 1
b100100000110000111100100111011 ,
1%
#105
0%
#110
b10100000001100000001101001111000 +
b10100000001100000001101001111000 6
b1010011 8
b1010011 O
b1111101 9
b1111101 L
b100110 :
b100110 I
b11110111 ;
b11110111 F
b111100000101111111111010010101 *
b111100000101111111111010010101 P
b10110 R
b10110 i
b11001000 S
b11001000 f
b10010 T
b10010 c
b1001100 U
b1001100 `
b1111000 ?
b11010 >
b110000 =
b10100000 <
b10100100 C
b10100100 M
b10110011 B
b10110011 J
b10011 A
b10011 G
b11110110 @
b11110110 D
b10010101 Y
b11111110 X
b10111 W
b111100 V
b1011 ]
b1011 g
b1100100 \
b1100100 d
b1001 [
b1001 a
b100110 Z
b100110 ^
b1100 /
b101111111001100101000101101000111101101111111100010011111100010111010110100000100100101100011101 #
b101111111001100101000101101000111101101111111100010011111100010111010110100000100100101100011101 -
b101010011101110110101010000100011011101111010000100010000000110101101111001101011001010110011110010000010000110111111000110000101011111100010001010001101100000111101110000000010010010010011111110101100110011001010111010011000111011101100100011111001100001110011111010100111101000010100000111011100101101010001001110001100101011011101111001111101101010111111101100110000010001110110000110011010100100010010101011010000100001001110011111001001011100100110001001010101101101010101011101011111100011111000010001001 "
b101010011101110110101010000100011011101111010000100010000000110101101111001101011001010110011110010000010000110111111000110000101011111100010001010001101100000111101110000000010010010010011111110101100110011001010111010011000111011101100100011111001100001110011111010100111101000010100000111011100101101010001001110001100101011011101111001111101101010111111101100110000010001110110000110011010100100010010101011010000100001001110011111001001011100100110001001010101101101010101011101011111100011111000010001001 .
b101010011101110110101010000100 3
b11010110100000100100101100011101 7
b11011011111111000100111111000101 Q
b11010110100000100100101100011101 1
b10000101111001111101001110101 ,
1%
#115
0%
#120
b1001001110110010010101000101011 +
b1001001110110010010101000101011 6
b1101001 8
b1101001 O
b1101010 9
b1101010 L
b11100100 :
b11100100 I
b11011110 ;
b11011110 F
b10000100101000010100111001111001 *
b10000100101000010100111001111001 P
b10011100 R
b10011100 i
b10111001 S
b10111001 f
b1101 T
b1101 c
b1100 U
b1100 `
b101011 ?
b101010 >
b11011001 =
b1001001 <
b10111001 C
b10111001 M
b110101 B
b110101 J
b1110010 A
b1110010 G
b1101111 @
b1101111 D
b1111001 Y
b1001110 X
b10100001 W
b10000100 V
b1001110 ]
b1001110 g
b11101000 \
b11101000 d
b10110010 [
b10110010 a
b110 Z
b110 ^
b1101 /
b1111000001011111111110100101011010000000110000000110100111100000000110000111101101100111011011 #
b1111000001011111111110100101011010000000110000000110100111100000000110000111101101100111011011 -
b1000011110000010110011001010111001010100111011101101010100001000110111011110100001000100000001101011011110011010110010101100111100100000100001101111110001100001010111111000100010100011011000001111011100000000100100100100111111101011001100110010101110100110001110111011001000111110011000011100111110101001111010000101000001110111001011010100010011100011001010110111011110011111011010101111111011001100000100011101100001100110101001000100101010110100001000010011100111110010010111001001100010010101011011010101010 "
b1000011110000010110011001010111001010100111011101101010100001000110111011110100001000100000001101011011110011010110010101100111100100000100001101111110001100001010111111000100010100011011000001111011100000000100100100100111111101011001100110010101110100110001110111011001000111110011000011100111110101001111010000101000001110111001011010100010011100011001010110111011110011111011010101111111011001100000100011101100001100110101001000100101010110100001000010011100111110010010111001001100010010101011011010101010 .
b1000011110000010110011001010111 3
b110000111101101100111011011 7
b10100000001100000001101001111000 Q
b110000111101101100111011011 1
b11011011000001011111101001100100 ,
1%
#125
0%
#130
b11010000 =
b1011011110100001010010000000100 +
b1011011110100001010010000000100 6
b10010100 8
b10010100 O
b11110001 9
b11110001 L
b10001011 :
b10001011 I
b10111000 ;
b10111000 F
b10001111100001010111011111011100 *
b10001111100001010111011111011100 P
b10101111 R
b10101111 i
b110001 S
b110001 f
b1001011 T
b1001011 c
b11111110 U
b11111110 `
b100 ?
b10100100 >
b1011011 <
b1001010 C
b1001010 M
b11110101 B
b11110101 J
b11001000 A
b11001000 G
b1011100 @
b1011100 D
b11011100 Y
b1110111 X
b10000101 W
b10001111 V
b11100011 ]
b11100011 g
b10101100 \
b10101100 d
b10010001 [
b10010001 a
b1111111 Z
b1111111 ^
b1110 /
b100001001010000101001110011110010100100111011001001010100010101110100111101100010111011101011100 #
b100001001010000101001110011110010100100111011001001010100010101110100111101100010111011101011100 -
b10000111100111000000101110110010000111100000101100110010101110010101001110111011010101000010001101110111101000010001000000011010110111100110101100101011001111001000001000011011111100011000010101111110001000101000110110000011110111000000001001001001001111111010110011001100101011101001100011101110110010001111100110000111001111101010011110100001010000011101110010110101000100111000110010101101110111100111110110101011111110110011000001000111011000011001101010010001001010101101000010000100111001111100100101110 "
b10000111100111000000101110110010000111100000101100110010101110010101001110111011010101000010001101110111101000010001000000011010110111100110101100101011001111001000001000011011111100011000010101111110001000101000110110000011110111000000001001001001001111111010110011001100101011101001100011101110110010001111100110000111001111101010011110100001010000011101110010110101000100111000110010101101110111100111110110101011111110110011000001000111011000011001101010010001001010101101000010000100111001111100100101110 .
b10000111100111000000101110110 3
b10100111101100010111011101011100 7
b1001001110110010010101000101011 Q
b10100111101100010111011101011100 1
b11101001110100000101101001001010 ,
1%
#135
0%
#140
b1000111100000110010011000100001 +
b1000111100000110010011000100001 6
b100000 8
b100000 O
b11010010 9
b11010010 L
b1011110 :
b1011110 I
b110001 ;
b110001 F
b10100010000000001011010111000101 *
b10100010000000001011010111000101 P
b11000111 R
b11000111 i
b111 S
b111 f
b11010111 T
b11010111 c
b11011010 U
b11011010 `
b100001 ?
b100110 >
b10000011 =
b1000111 <
b10000 C
b10000 M
b1101001 B
b1101001 J
b101111 A
b101111 G
b10010101 @
b10010101 D
b11000101 Y
b10110101 X
b0 W
b10100010 V
b11010111 ]
b11010111 g
b10110111 \
b10110111 d
b11011111 [
b11011111 a
b1101101 Z
b1101101 ^
b1111 /
b100011111000010101110111110111000101101111010000101001000000010010101101010011101110010001111100 #
b100011111000010101110111110111000101101111010000101001000000010010101101010011101110010001111100 -
b10100110101010000010101011010111000100001111001110000001011101100100001111000001011001100101011100101010011101110110101010000100011011101111010000100010000000110101101111001101011001010110011110010000010000110111111000110000101011111100010001010001101100000111101110000000010010010010011111110101100110011001010111010011000111011101100100011111001100001110011111010100111101000010100000111011100101101010001001110001100101011011101111001111101101010111111101100110000010001110110000110011010100100010010101011010 "
b10100110101010000010101011010111000100001111001110000001011101100100001111000001011001100101011100101010011101110110101010000100011011101111010000100010000000110101101111001101011001010110011110010000010000110111111000110000101011111100010001010001101100000111101110000000010010010010011111110101100110011001010111010011000111011101100100011111001100001110011111010100111101000010100000111011100101101010001001110001100101011011101111001111101101010111111101100110000010001110110000110011010100100010010101011010 .
b10100110101010000010101011010111 3
b10101101010011101110010001111100 7
b1011011110100001010010000000100 Q
b10101101010011101110010001111100 1
b11110001011111011101001011111001 ,
1%
#145
0%
